{"animals":[{"id":46508858,"organization_id":"NC590","url":"https:\/\/www.petfinder.com\/rabbit\/barnaby-46508858\/nc\/raleigh\/spca-of-wake-county-nc590\/?referrer_id=66028297-864c-43f3-bfd3-6bc32c31c5d7","type":"Rabbit","species":"Rabbit","breeds":{"primary":"Californian","secondary":null,"mixed":false,"unknown":false},"colors":{"primary":null,"secondary":null,"tertiary":null},"age":"Young","gender":"Male","size":"Medium","coat":null,"attributes":{"spayed_neutered":true,"house_trained":false,"declawed":null,"special_needs":false,"shots_current":false},"environment":{"children":null,"dogs":null,"cats":null},"tags":[],"name":"BARNABY","description":"Hey! Did you know that bunnies really shouldn\u0026amp;#39;t eat carrots all of the time? Turns out they\u0026amp;#39;re basically just rabbit...","photos":[],"status":"adoptable","status_changed_at":"2019-11-07T20:59:34+0000","published_at":"2019-11-07T20:59:34+0000","distance":10.1351,"contact":{"email":"adoptstaff@spcawake.org","phone":"(919) 772-2326","address":{"address1":"200 Petfinder Lane","address2":null,"city":"Raleigh","state":"NC","postcode":"27603","country":"US"}},"_links":{"self":{"href":"\/v2\/animals\/46508858"},"type":{"href":"\/v2\/types\/rabbit"},"organization":{"href":"\/v2\/organizations\/nc590"}}},{"id":46492679,"organization_id":"NC340","url":"https:\/\/www.petfinder.com\/rabbit\/coal-46492679\/nc\/chapel-hill\/orange-county-animal-services-nc340\/?referrer_id=66028297-864c-43f3-bfd3-6bc32c31c5d7","type":"Rabbit","species":"Rabbit","breeds":{"primary":"Bunny Rabbit","secondary":null,"mixed":false,"unknown":false},"colors":{"primary":null,"secondary":null,"tertiary":null},"age":"Adult","gender":"Female","size":"Medium","coat":null,"attributes":{"spayed_neutered":false,"house_trained":false,"declawed":null,"special_needs":false,"shots_current":false},"environment":{"children":null,"dogs":null,"cats":null},"tags":[],"name":"COAL","description":null,"photos":[{"small":"https:\/\/dl5zpyw5k3jeb.cloudfront.net\/photos\/pets\/46492679\/1\/?bust=1573052354\u0026width=100","medium":"https:\/\/dl5zpyw5k3jeb.cloudfront.net\/photos\/pets\/46492679\/1\/?bust=1573052354\u0026width=300","large":"https:\/\/dl5zpyw5k3jeb.cloudfront.net\/photos\/pets\/46492679\/1\/?bust=1573052354\u0026width=600","full":"https:\/\/dl5zpyw5k3jeb.cloudfront.net\/photos\/pets\/46492679\/1\/?bust=1573052354"}],"status":"adoptable","status_changed_at":"2019-11-06T14:54:10+0000","published_at":"2019-11-06T14:54:10+0000","distance":20.244,"contact":{"email":"tfox@orangecountync.gov","phone":"(919) 942-7387","address":{"address1":"1601 Eubanks Road","address2":null,"city":"Chapel Hill","state":"NC","postcode":"27516","country":"US"}},"_links":{"self":{"href":"\/v2\/animals\/46492679"},"type":{"href":"\/v2\/types\/rabbit"},"organization":{"href":"\/v2\/organizations\/nc340"}}},{"id":46471354,"organization_id":"NC340","url":"https:\/\/www.petfinder.com\/rabbit\/darla-46471354\/nc\/chapel-hill\/orange-county-animal-services-nc340\/?referrer_id=66028297-864c-43f3-bfd3-6bc32c31c5d7","type":"Rabbit","species":"Rabbit","breeds":{"primary":"Bunny Rabbit","secondary":"Holland Lop","mixed":true,"unknown":false},"colors":{"primary":null,"secondary":null,"tertiary":null},"age":"Adult","gender":"Female","size":"Medium","coat":null,"attributes":{"spayed_neutered":false,"house_trained":false,"declawed":null,"special_needs":false,"shots_current":false},"environment":{"children":null,"dogs":null,"cats":null},"tags":[],"name":"DARLA","description":null,"photos":[{"small":"https:\/\/dl5zpyw5k3jeb.cloudfront.net\/photos\/pets\/46471354\/1\/?bust=1572882771\u0026width=100","medium":"https:\/\/dl5zpyw5k3jeb.cloudfront.net\/photos\/pets\/46471354\/1\/?bust=1572882771\u0026width=300","large":"https:\/\/dl5zpyw5k3jeb.cloudfront.net\/photos\/pets\/46471354\/1\/?bust=1572882771\u0026width=600","full":"https:\/\/dl5zpyw5k3jeb.cloudfront.net\/photos\/pets\/46471354\/1\/?bust=1572882771"}],"status":"adoptable","status_changed_at":"2019-11-04T15:47:45+0000","published_at":"2019-11-04T15:47:45+0000","distance":20.244,"contact":{"email":"tfox@orangecountync.gov","phone":"(919) 942-7387","address":{"address1":"1601 Eubanks Road","address2":null,"city":"Chapel Hill","state":"NC","postcode":"27516","country":"US"}},"_links":{"self":{"href":"\/v2\/animals\/46471354"},"type":{"href":"\/v2\/types\/rabbit"},"organization":{"href":"\/v2\/organizations\/nc340"}}},{"id":46418130,"organization_id":"NC590","url":"https:\/\/www.petfinder.com\/rabbit\/camilla-46418130\/nc\/raleigh\/spca-of-wake-county-nc590\/?referrer_id=66028297-864c-43f3-bfd3-6bc32c31c5d7","type":"Rabbit","species":"Rabbit","breeds":{"primary":"Californian","secondary":null,"mixed":false,"unknown":false},"colors":{"primary":null,"secondary":null,"tertiary":null},"age":"Young","gender":"Female","size":"Medium","coat":null,"attributes":{"spayed_neutered":true,"house_trained":false,"declawed":null,"special_needs":false,"shots_current":false},"environment":{"children":null,"dogs":null,"cats":null},"tags":[],"name":"CAMILLA","description":"Camilla, Camilla, my lovely Camilla! That\u0026amp;#39;s the song you\u0026amp;#39;ll be singing to me every day once we get home! Have...","photos":[{"small":"https:\/\/dl5zpyw5k3jeb.cloudfront.net\/photos\/pets\/46418130\/1\/?bust=1572983807\u0026width=100","medium":"https:\/\/dl5zpyw5k3jeb.cloudfront.net\/photos\/pets\/46418130\/1\/?bust=1572983807\u0026width=300","large":"https:\/\/dl5zpyw5k3jeb.cloudfront.net\/photos\/pets\/46418130\/1\/?bust=1572983807\u0026width=600","full":"https:\/\/dl5zpyw5k3jeb.cloudfront.net\/photos\/pets\/46418130\/1\/?bust=1572983807"}],"status":"adoptable","status_changed_at":"2019-10-29T19:29:33+0000","published_at":"2019-10-29T19:29:33+0000","distance":10.1351,"contact":{"email":"adoptstaff@spcawake.org","phone":"(919) 772-2326","address":{"address1":"200 Petfinder Lane","address2":null,"city":"Raleigh","state":"NC","postcode":"27603","country":"US"}},"_links":{"self":{"href":"\/v2\/animals\/46418130"},"type":{"href":"\/v2\/types\/rabbit"},"organization":{"href":"\/v2\/organizations\/nc590"}}}],"pagination":{"count_per_page":4,"total_count":372,"current_page":1,"total_pages":93,"_links":{"next":{"href":"\/v2\/animals?limit=4\u0026location=27502\u0026type=rabbit\u0026page=2"}}}}
